Toggle/dump.vcd
$date
	Wed Oct 23 10:13:24 2024
$end
$version
	Bluespec VCD dumper 2.1
$end
$timescale
	1 us
$end
$scope module main $end
$scope module top $end
$var reg 1 ! CLK $end
$var reg 1 ! CLK $end
$var reg 1 " CAN_FIRE_RL_test_toggle $end
$var reg 1 # RST_N $end
$var reg 1 $ WILL_FIRE_RL_test_toggle $end
$var reg 1 & tog_a $end
$upscope $end
$upscope $end
$enddefinitions $end
1!
1"
0#
1$
0&
#5
0!
1#
#10
1!
1&
#15
0!
#20
1!
0&
#25
0!
#30
1!
1&
#35
0!
#40
1!
0&
#45
0!
#50
1!
1&
#55
0!
#60
1!
0&
#65
0!
#70
1!
1&
#75
0!
#80
1!
0&
#85
0!
#90
1!
1&
#95
0!
#100
1!
0&
#105
0!
#110
1!
1&
#115
0!
#120
1!
0&
#125
0!
#130
1!
1&
#135
0!
#140
1!
0&
#145
0!
#150
1!
1&
#155
0!
#160
1!
0&
#165
0!
#170
1!
1&
#175
0!
#180
1!
0&
#185
0!
#190
1!
1&
#195
0!
#200
1!
0&
#205
0!
#210
1!
1&
#215
0!
#220
1!
0&
#225
0!
#230
1!
1&
#235
0!
#240
1!
0&
#245
0!
#250
1!
1&
#255
0!
#260
1!
0&
#265
0!
#270
1!
1&
#275
0!
#280
1!
0&
#285
0!
#290
1!
1&
#295
0!
#300
1!
0&
#305
0!
#310
1!
1&
#315
0!
#320
1!
0&
#325
0!
#330
1!
1&
#335
0!
#340
1!
0&
#345
0!
#350
1!
1&
#355
0!
#360
1!
0&
#365
0!
#370
1!
1&
#375
0!
#380
1!
0&
#385
0!
#390
1!
1&
#395
0!
#400
1!
0&
#405
0!
#410
1!
1&
#415
0!
#420
1!
0&
#425
0!
#430
1!
1&
#435
0!
#440
1!
0&
#445
0!
#450
1!
1&
#455
0!
#460
1!
0&
#465
0!
#470
1!
1&
#475
0!
#480
1!
0&
#485
0!
#490
1!
1&
#495
0!
#500
1!
0&
#505
0!
#510
1!
1&
#515
0!
#520
1!
0&
#525
0!
#530
1!
1&
#535
0!
#540
1!
0&
#545
0!
#550
1!
1&
#555
0!
#560
1!
0&
#565
0!
#570
1!
1&
#575
0!
#580
1!
0&
#585
0!
#590
1!
1&
#595
0!
#600
1!
0&
#605
0!
#610
1!
1&
#615
0!
#620
1!
0&
#625
0!
#630
1!
1&
#635
0!
#640
1!
0&
#645
0!
#650
1!
1&
#655
0!
#660
1!
0&
#665
0!
#670
1!
1&
#675
0!
#680
1!
0&
#685
0!
#690
1!
1&
#695
0!
#700
1!
0&
#705
0!
#710
1!
1&
#715
0!
#720
1!
0&
#725
0!
#730
1!
1&
#735
0!
#740
1!
0&
#745
0!
#750
1!
1&
#755
0!
#760
1!
0&
#765
0!
#770
1!
1&
#775
0!
#780
1!
0&
#785
0!
#790
1!
1&
#795
0!
#800
1!
0&
#805
0!
#810
1!
1&
#815
0!
#820
1!
0&
#825
0!
#830
1!
1&
#835
0!
#840
1!
0&
#845
0!
#850
1!
1&
#855
0!
#860
1!
0&
#865
0!
#870
1!
1&
#875
0!
#880
1!
0&
#885
0!
#890
1!
1&
#895
0!
#900
1!
0&
#905
0!
#910
1!
1&
#915
0!
#920
1!
0&
#925
0!
#930
1!
1&
#935
0!
#940
1!
0&
#945
0!
#950
1!
1&
#955
0!
#960
1!
0&
#965
0!
#970
1!
1&
#975
0!
#980
1!
0&
#985
0!
#990
1!
1&
#995
0!
#1000
1!
0&
#1005
0!
#1010
1!
1&
#1015
0!
#1020
1!
0&
#1025
0!
#1030
1!
1&
#1035
0!
#1040
1!
0&
#1045
0!
#1050
1!
1&
#1055
0!
#1060
1!
0&
#1065
0!
#1070
1!
1&
#1075
0!
#1080
1!
0&
#1085
0!
#1090
1!
1&
#1095
0!
#1100
1!
0&
#1105
0!
#1110
1!
1&
#1115
0!
#1120
1!
0&
#1125
0!
#1130
1!
1&
#1135
0!
#1140
1!
0&
#1145
0!
#1150
1!
1&
#1155
0!
#1160
1!
0&
#1165
0!
#1170
1!
1&
#1175
0!
#1180
1!
0&
#1185
0!
#1190
1!
1&
#1195
0!
#1200
1!
0&
#1205
0!
#1210
1!
1&
#1215
0!
#1220
1!
0&
#1225
0!
#1230
1!
1&
#1235
0!
#1240
1!
0&
#1245
0!
#1250
1!
1&
#1255
0!
#1260
1!
0&
#1265
0!
#1270
1!
1&
#1275
0!
#1280
1!
0&
#1285
0!
#1290
1!
1&
#1295
0!
#1300
1!
0&
#1305
0!
#1310
1!
1&
#1315
0!
#1320
1!
0&
#1325
0!
#1330
1!
1&
#1335
0!
#1340
1!
0&
#1345
0!
#1350
1!
1&
#1355
0!
#1360
1!
0&
#1365
0!
#1370
1!
1&
#1375
0!
#1380
1!
0&
#1385
0!
#1390
1!
1&
#1395
0!
#1400
1!
0&
#1405
0!
#1410
1!
1&
#1415
0!
#1420
1!
0&
#1425
0!
#1430
1!
1&
#1435
0!
#1440
1!
0&
#1445
0!
#1450
1!
1&
#1455
0!
#1460
1!
0&
#1465
0!
#1470
1!
1&
#1475
0!
#1480
1!
0&
#1485
0!
#1490
1!
1&
#1495
0!
#1500
1!
0&
#1505
0!
#1510
1!
1&
#1515
0!
#1520
1!
0&
#1525
0!
#1530
1!
1&
#1535
0!
#1540
1!
0&
#1545
0!
#1550
1!
1&
#1555
0!
#1560
1!
0&
#1565
0!
#1570
1!
1&
#1575
0!
#1580
1!
0&
#1585
0!
#1590
1!
1&
#1595
0!
#1600
1!
0&
#1605
0!
#1610
1!
1&
#1615
0!
#1620
1!
0&
#1625
0!
#1630
1!
1&
#1635
0!
#1640
1!
0&
#1645
0!
#1650
1!
1&
#1655
0!
#1660
1!
0&
#1665
0!
#1670
1!
1&
#1675
0!
#1680
1!
0&
#1685
0!
#1690
1!
1&
#1695
0!
#1700
1!
0&
#1705
0!
#1710
1!
1&
#1715
0!
#1720
1!
0&
#1725
0!
#1730
1!
1&
#1735
0!
#1740
1!
0&
#1745
0!
#1750
1!
1&
#1755
0!
#1760
1!
0&
#1765
0!
#1770
1!
1&
#1775
0!
#1780
1!
0&
#1785
0!
#1790
1!
1&
#1795
0!
#1800
1!
0&
#1805
0!
#1810
1!
1&
#1815
0!
#1820
1!
0&
#1825
0!
#1830
1!
1&
#1835
0!
#1840
1!
0&
#1845
0!
#1850
1!
1&
#1855
0!
#1860
1!
0&
#1865
0!
#1870
1!
1&
#1875
0!
#1880
1!
0&
#1885
0!
#1890
1!
1&
#1895
0!
#1900
1!
0&
#1905
0!
#1910
1!
1&
#1915
0!
#1920
1!
0&
#1925
0!
#1930
1!
1&
#1935
0!
#1940
1!
0&
#1945
0!
#1950
1!
1&
#1955
0!
#1960
1!
0&
#1965
0!
#1970
1!
1&
#1975
0!
#1980
1!
0&
#1985
0!
#1990
1!
1&
#1995
0!
#2000
1!
0&
#2005
0!
#2010
1!
1&
#2015
0!
#2020
1!
0&
#2025
0!
#2030
1!
1&
#2035
0!
#2040
1!
0&
#2045
0!
#2050
1!
1&
#2055
0!
#2060
1!
0&
#2065
0!
#2070
1!
1&
#2075
0!
#2080
1!
0&
#2085
0!
#2090
1!
1&
#2095
0!
#2100
1!
0&
#2105
0!
#2110
1!
1&
#2115
0!
#2120
1!
0&
#2125
0!
#2130
1!
1&
#2135
0!
#2140
1!
0&
#2145
0!
#2150
1!
1&
#2155
0!
#2160
1!
0&
#2165
0!
#2170
1!
1&
#2175
0!
#2180
1!
0&
#2185
0!
#2190
1!
1&
#2195
0!
#2200
1!
0&
#2205
0!
#2210
1!
1&
#2215
0!
#2220
1!
0&
#2225
0!
#2230
1!
1&
#2235
0!
#2240
1!
0&
#2245
0!
#2250
1!
1&
#2255
0!
#2260
1!
0&
#2265
0!
#2270
1!
1&
#2275
0!
#2280
1!
0&
#2285
0!
#2290
1!
1&
#2295
0!
#2300
1!
0&
#2305
0!
#2310
1!
1&
#2315
0!
#2320
1!
0&
#2325
0!
#2330
1!
1&
#2335
0!
#2340
1!
0&
#2345
0!
#2350
1!
1&
#2355
0!
#2360
1!
0&
#2365
0!
#2370
1!
1&
#2375
0!
#2380
1!
0&
#2385
0!
#2390
1!
1&
#2395
0!
#2400
1!
0&
#2405
0!
#2410
1!
1&
#2415
0!
#2420
1!
0&
#2425
0!
#2430
1!
1&
#2435
0!
#2440
1!
0&
#2445
0!
#2450
1!
1&
#2455
0!
#2460
1!
0&
#2465
0!
#2470
1!
1&
#2475
0!
#2480
1!
0&
#2485
0!
#2490
1!
1&
#2495
0!
#2500
1!
0&
#2505
0!
#2510
1!
1&
#2515
0!
#2520
1!
0&
#2525
0!
#2530
1!
1&
#2535
0!
#2540
1!
0&
#2545
0!
#2550
1!
1&
#2555
0!
#2560
1!
0&
#2565
0!
#2570
1!
1&
#2575
0!
#2580
1!
0&
#2585
0!
#2590
1!
1&
#2595
0!
#2600
1!
0&
#2605
0!
#2610
1!
1&
#2615
0!
#2620
1!
0&
#2625
0!
#2630
1!
1&
#2635
0!
#2640
1!
0&
#2645
0!
#2650
1!
1&
#2655
0!
#2660
1!
0&
#2665
0!
#2670
1!
1&
#2675
0!
#2680
1!
0&
#2685
0!
#2690
1!
1&
#2695
0!
#2700
1!
0&
#2705
0!
#2710
1!
1&
#2715
0!
#2720
1!
0&
#2725
0!
#2730
1!
1&
#2735
0!
#2740
1!
0&
#2745
0!
#2750
1!
1&
#2755
0!
#2760
1!
0&
#2765
0!
#2770
1!
1&
#2775
0!
#2780
1!
0&
#2785
0!
#2790
1!
1&
#2795
0!
#2800
1!
0&
#2805
0!
#2810
1!
1&
#2815
0!
#2820
1!
0&
#2825
0!
#2830
1!
1&
#2835
0!
#2840
1!
0&
#2845
0!
#2850
1!
1&
#2855
0!
#2860
1!
0&
#2865
0!
#2870
1!
1&
#2875
0!
#2880
1!
0&
#2885
0!
#2890
1!
1&
#2895
0!
#2900
1!
0&
#2905
0!
#2910
1!
1&
#2915
0!
#2920
1!
0&
#2925
0!
#2930
1!
1&
#2935
0!
#2940
1!
0&
#2945
0!
#2950
1!
1&
#2955
0!
#2960
1!
0&
#2965
0!
#2970
1!
1&
#2975
0!
#2980
1!
0&
#2985
0!
#2990
1!
1&
#2995
0!
#3000
1!
0&
#3005
0!
#3010
1!
1&
#3015
0!
#3020
1!
0&
#3025
0!
#3030
1!
1&
#3035
0!
#3040
1!
0&
#3045
0!
#3050
1!
1&
#3055
0!
#3060
1!
0&
#3065
0!
#3070
1!
1&
#3075
0!
#3080
1!
0&
#3085
0!
#3090
1!
1&
#3095
0!
#3100
1!
0&
#3105
0!
#3110
1!
1&
#3115
0!
#3120
1!
0&
#3125
0!
#3130
1!
1&
#3135
0!
#3140
1!
0&
#3145
0!
#3150
1!
1&
#3155
0!
#3160
1!
0&
#3165
0!
#3170
1!
1&
#3175
0!
#3180
1!
0&
#3185
0!
#3190
1!
1&
#3195
0!
#3200
1!
0&
#3205
0!
#3210
1!
1&
#3215
0!
#3220
1!
0&
#3225
0!
#3230
1!
1&
#3235
0!
#3240
1!
0&
#3245
0!
#3250
1!
1&
#3255
0!
#3260
1!
0&
#3265
0!
#3270
1!
1&
#3275
0!
#3280
1!
0&
#3285
0!
#3290
1!
1&
#3295
0!
#3300
1!
0&
#3305
0!
#3310
1!
1&
#3315
0!
#3320
1!
0&
#3325
0!
#3330
1!
1&
#3335
0!
#3340
1!
0&
#3345
0!
#3350
1!
1&
#3355
0!
#3360
1!
0&
#3365
0!
#3370
1!
1&
#3375
0!
#3380
1!
0&
#3385
0!
#3390
1!
1&
#3395
0!
#3400
1!
0&
#3405
0!
#3410
1!
1&
#3415
0!
#3420
1!
0&
#3425
0!
#3430
1!
1&
#3435
0!
#3440
1!
0&
#3445
0!
#3450
1!
1&
#3455
0!
#3460
1!
0&
#3465
0!
#3470
1!
1&
#3475
0!
#3480
1!
0&
#3485
0!
#3490
1!
1&
#3495
0!
#3500
1!
0&
#3505
0!
#3510
1!
1&
#3515
0!
#3520
1!
0&
#3525
0!
#3530
1!
1&
#3535
0!
#3540
1!
0&
#3545
0!
#3550
1!
1&
#3555
0!
#3560
1!
0&
#3565
0!
#3570
1!
1&
#3575
0!
#3580
1!
0&
#3585
0!
#3590
1!
1&
#3595
0!
#3600
1!
0&
#3605
0!
#3610
1!
1&
#3615
0!
#3620
1!
0&
#3625
0!
#3630
1!
1&
#3635
0!
#3640
1!
0&
#3645
0!
#3650
1!
1&
#3655
0!
#3660
1!
0&
#3665
0!
#3670
1!
1&
#3675
0!
#3680
1!
0&
#3685
0!
#3690
1!
1&
#3695
0!
#3700
1!
0&
#3705
0!
#3710
1!
1&
#3715
0!
#3720
1!
0&
#3725
0!
#3730
1!
1&
#3735
0!
#3740
1!
0&
#3745
0!
#3750
1!
1&
#3755
0!
#3760
1!
0&
#3765
0!
#3770
1!
1&
#3775
0!
#3780
1!
0&
#3785
0!
#3790
1!
1&
#3795
0!
#3800
1!
0&
#3805
0!
#3810
1!
1&
#3815
0!
#3820
1!
0&
#3825
0!
#3830
1!
1&
#3835
0!
#3840
1!
0&
#3845
0!
#3850
1!
1&
#3855
0!
#3860
1!
0&
#3865
0!
#3870
1!
1&
#3875
0!
#3880
1!
0&
#3885
0!
#3890
1!
1&
#3895
0!
#3900
1!
0&
#3905
0!
#3910
1!
1&
#3915
0!
#3920
1!
0&
#3925
0!
#3930
1!
1&
#3935
0!
#3940
1!
0&
#3945
0!
#3950
1!
1&
#3955
0!
#3960
1!
0&
#3965
0!
#3970
1!
1&
#3975
0!
#3980
1!
0&
#3985
0!
#3990
1!
1&
#3995
0!
#4000
1!
0&
#4005
0!
#4010
1!
1&
#4015
0!
#4020
1!
0&
#4025
0!
#4030
1!
1&
#4035
0!
#4040
1!
0&
#4045
0!
#4050
1!
1&
#4055
0!
#4060
1!
0&
#4065
0!
#4070
1!
1&
#4075
0!
#4080
1!
0&
#4085
0!
#4090
1!
1&
#4095
0!
#4100
1!
0&
#4105
0!
#4110
1!
1&
#4115
0!
#4120
1!
0&
#4125
0!
#4130
1!
1&
#4135
0!
#4140
1!
0&
#4145
0!
#4150
1!
1&
#4155
0!
#4160
1!
0&
#4165
0!
#4170
1!
1&
#4175
0!
#4180
1!
0&
#4185
0!
#4190
1!
1&
#4195
0!
#4200
1!
0&
#4205
0!
#4210
1!
1&
#4215
0!
#4220
1!
0&
#4225
0!
#4230
1!
1&
#4235
0!
#4240
1!
0&
#4245
0!
#4250
1!
1&
#4255
0!
#4260
1!
0&
#4265
0!
#4270
1!
1&
#4275
0!
#4280
1!
0&
#4285
0!
#4290
1!
1&
#4295
0!
#4300
1!
0&
#4305
0!
#4310
1!
1&
#4315
0!
#4320
1!
0&
#4325
0!
#4330
1!
1&
#4335
0!
#4340
1!
0&
#4345
0!
#4350
1!
1&
#4355
0!
#4360
1!
0&
#4365
0!
#4370
1!
1&
#4375
0!
#4380
1!
0&
#4385
0!
#4390
1!
1&
#4395
0!
#4400
1!
0&
#4405
0!
#4410
1!
1&
#4415
0!
#4420
1!
0&
#4425
0!
#4430
1!
1&
#4435
0!
#4440
1!
0&
#4445
0!
#4450
1!
1&
#4455
0!
#4460
1!
0&
#4465
0!
#4470
1!
1&
#4475
0!
#4480
1!
0&
#4485
0!
#4490
1!
1&
#4495
0!
#4500
1!
0&
#4505
0!
#4510
1!
1&
#4515
0!
#4520
1!
0&
#4525
0!
#4530
1!
1&
#4535
0!
#4540
1!
0&
#4545
0!
#4550
1!
1&
#4555
0!
#4560
1!
0&
#4565
0!
#4570
1!
1&
#4575
0!
#4580
1!
0&
#4585
0!
#4590
1!
1&
#4595
0!
#4600
1!
0&
#4605
0!
#4610
1!
1&
#4615
0!
#4620
1!
0&
#4625
0!
#4630
1!
1&
#4635
0!
#4640
1!
0&
#4645
0!
#4650
1!
1&
#4655
0!
#4660
1!
0&
#4665
0!
#4670
1!
1&
#4675
0!
#4680
1!
0&
#4685
0!
#4690
1!
1&
#4695
0!
#4700
1!
0&
#4705
0!
#4710
1!
1&
#4715
0!
#4720
1!
0&
#4725
0!
#4730
1!
1&
#4735
0!
#4740
1!
0&
#4745
0!
#4750
1!
1&
#4755
0!
#4760
1!
0&
#4765
0!
#4770
1!
1&
#4775
0!
#4780
1!
0&
#4785
0!
#4790
1!
1&
#4795
0!
#4800
1!
0&
#4805
0!
#4810
1!
1&
#4815
0!
#4820
1!
0&
#4825
0!
#4830
1!
1&
#4835
0!
#4840
1!
0&
#4845
0!
#4850
1!
1&
#4855
0!
#4860
1!
0&
#4865
0!
#4870
1!
1&
#4875
0!
#4880
1!
0&
#4885
0!
#4890
1!
1&
#4895
0!
#4900
1!
0&
#4905
0!
#4910
1!
1&
#4915
0!
#4920
1!
0&
#4925
0!
#4930
1!
1&
#4935
0!
#4940
1!
0&
#4945
0!
#4950
1!
1&
#4955
0!
#4960
1!
0&
#4965
0!
#4970
1!
1&
#4975
0!
#4980
1!
0&
#4985
0!
#4990
1!
1&
#4995
0!
#5000
1!
0&
#5005
0!
#5010
1!
1&
#5015
0!
#5020
1!
0&
#5025
0!
#5030
1!
1&
#5035
0!
#5040
1!
0&
#5045
0!
#5050
1!
1&
#5055
0!
#5060
1!
0&
#5065
0!
#5070
1!
1&
#5075
0!
#5080
1!
0&
#5085
0!
#5090
1!
1&
#5095
0!
#5100
1!
0&
#5105
0!
#5110
1!
1&
#5115
0!
#5120
1!
0&
#5125
0!
#5130
1!
1&
#5135
0!
#5140
1!
0&
#5145
0!
#5150
1!
1&
#5155
0!
#5160
1!
0&
#5165
0!
#5170
1!
1&
#5175
0!
#5180
1!
0&
#5185
0!
#5190
1!
1&
#5195
0!
#5200
1!
0&
#5205
0!
#5210
1!
1&
#5215
0!
#5220
1!
0&
#5225
0!
#5230
1!
1&
#5235
0!
#5240
1!
0&
#5245
0!
#5250
1!
1&
#5255
0!
#5260
1!
0&
#5265
0!
#5270
1!
1&
#5275
0!
#5280
1!
0&
#5285
0!
#5290
1!
1&
#5295
0!
#5300
1!
0&
#5305
0!
#5310
1!
1&
#5315
0!
#5320
1!
0&
#5325
0!
#5330
1!
1&
#5335
0!
#5340
1!
0&
#5345
0!
#5350
1!
1&
#5355
0!
#5360
1!
0&
#5365
0!
#5370
1!
1&
#5375
0!
#5380
1!
0&
#5385
0!
#5390
1!
1&
#5395
0!
#5400
1!
0&
#5405
0!
#5410
1!
1&
#5415
0!
#5420
1!
0&
#5425
0!
#5430
1!
1&
#5435
0!
#5440
1!
0&
#5445
0!
#5450
1!
1&
#5455
0!
#5460
1!
0&
#5465
0!
#5470
1!
1&
#5475
0!
#5480
1!
0&
#5485
0!
#5490
1!
1&
#5495
0!
#5500
1!
0&
#5505
0!
#5510
1!
1&
#5515
0!
#5520
1!
0&
#5525
0!
#5530
1!
1&
#5535
0!
#5540
1!
0&
#5545
0!
#5550
1!
1&
#5555
0!
#5560
1!
0&
#5565
0!
#5570
1!
1&
#5575
0!
#5580
1!
0&
#5585
0!
#5590
1!
1&
#5595
0!
#5600
1!
0&
#5605
0!
#5610
1!
1&
#5615
0!
#5620
1!
0&
#5625
0!
#5630
1!
1&
#5635
0!
#5640
1!
0&
#5645
0!
#5650
1!
1&
#5655
0!
#5660
1!
0&
#5665
0!
#5670
1!
1&
#5675
0!
#5680
1!
0&
#5685
0!
#5690
1!
1&
#5695
0!
#5700
1!
0&
#5705
0!
#5710
1!
1&
#5715
0!
#5720
1!
0&
#5725
0!
#5730
1!
1&
#5735
0!
#5740
1!
0&
#5745
0!
#5750
1!
1&
#5755
0!
#5760
1!
0&
#5765
0!
#5770
1!
1&
#5775
0!
#5780
1!
0&
#5785
0!
#5790
1!
1&
#5795
0!
#5800
1!
0&
#5805
0!
#5810
1!
1&
#5815
0!
#5820
1!
0&
#5825
0!
#5830
1!
1&
#5835
0!
#5840
1!
0&
#5845
0!
#5850
1!
1&
#5855
0!
#5860
1!
0&
#5865
0!
#5870
1!
1&
#5875
0!
#5880
1!
0&
#5885
0!
#5890
1!
1&
#5895
0!
#5900
1!
0&
#5905
0!
#5910
1!
1&
#5915
0!
#5920
1!
0&
#5925
0!
#5930
1!
1&
#5935
0!
#5940
1!
0&
#5945
0!
#5950
1!
1&
#5955
0!
#5960
1!
0&
#5965
0!
#5970
1!
1&
#5975
0!
#5980
1!
0&
#5985
0!
#5990
1!
1&
#5995
0!
#6000
1!
0&
#6005
0!
#6010
1!
1&
#6015
0!
#6020
1!
0&
#6025
0!
#6030
1!
1&
#6035
0!
#6040
1!
0&
#6045
0!
#6050
1!
1&
#6055
0!
#6060
1!
0&
#6065
0!
#6070
1!
1&
#6075
0!
#6080
1!
0&
#6085
0!
#6090
1!
1&
#6095
0!
#6100
1!
0&
#6105
0!
#6110
1!
1&
#6115
0!
#6120
1!
0&
#6125
0!
#6130
1!
1&
#6135
0!
#6140
1!
0&
#6145
0!
#6150
1!
1&
#6155
0!
#6160
1!
0&
#6165
0!
#6170
1!
1&
#6175
0!
#6180
1!
0&
#6185
0!
#6190
1!
1&
#6195
0!
#6200
1!
0&
#6205
0!
#6210
1!
1&
#6215
0!
#6220
1!
0&
#6225
0!
#6230
1!
1&
#6235
0!
#6240
1!
0&
#6245
0!
#6250
1!
1&
#6255
0!
#6260
1!
0&
#6265
0!
#6270
1!
1&
#6275
0!
#6280
1!
0&
#6285
0!
#6290
1!
1&
#6295
0!
#6300
1!
0&
#6305
0!
#6310
1!
1&
#6315
0!
#6320
1!
0&
#6325
0!
#6330
1!
1&
#6335
0!
#6340
1!
0&
#6345
0!
#6350
1!
1&
#6355
0!
#6360
1!
0&
#6365
0!
#6370
1!
1&
#6375
0!
#6380
1!
0&
#6385
0!
#6390
1!
1&
#6395
0!
#6400
1!
0&
#6405
0!
#6410
1!
1&
#6415
0!
#6420
1!
0&
#6425
0!
#6430
1!
1&
#6435
0!
#6440
1!
0&
#6445
0!
#6450
1!
1&
#6455
0!
#6460
1!
0&
#6465
0!
#6470
1!
1&
#6475
0!
#6480
1!
0&
#6485
0!
#6490
1!
1&
#6495
0!
#6500
1!
0&
#6505
0!
#6510
1!
1&
#6515
0!
#6520
1!
0&
#6525
0!
#6530
1!
1&
#6535
0!
#6540
1!
0&
#6545
0!
#6550
1!
1&
#6555
0!
#6560
1!
0&
#6565
0!
#6570
1!
1&
#6575
0!
#6580
1!
0&
#6585
0!
#6590
1!
1&
#6595
0!
#6600
1!
0&
#6605
0!
#6610
1!
1&
#6615
0!
#6620
1!
0&
#6625
0!
#6630
1!
1&
#6635
0!
#6640
1!
0&
#6645
0!
#6650
1!
1&
#6655
0!
#6660
1!
0&
#6665
0!
#6670
1!
1&
#6675
0!
#6680
1!
0&
#6685
0!
#6690
1!
1&
#6695
0!
#6700
1!
0&
#6705
0!
#6710
1!
1&
#6715
0!
#6720
1!
0&
#6725
0!
#6730
1!
1&
#6735
0!
#6740
1!
0&
#6745
0!
#6750
1!
1&
#6755
0!
#6760
1!
0&
#6765
0!
#6770
1!
1&
#6775
0!
#6780
1!
0&
#6785
0!
#6790
1!
1&
#6795
0!
#6800
1!
0&
#6805
0!
#6810
1!
1&
#6815
0!
#6820
1!
0&
#6825
0!
#6830
1!
1&
#6835
0!
#6840
1!
0&
#6845
0!
#6850
1!
1&
#6855
0!
#6860
1!
0&
#6865
0!
#6870
1!
1&
#6875
0!
#6880
1!
0&
#6885
0!
#6890
1!
1&
#6895
0!
#6900
1!
0&
#6905
0!
#6910
1!
1&
#6915
0!
#6920
1!
0&
#6925
0!
#6930
1!
1&
#6935
0!
#6940
1!
0&
#6945
0!
#6950
1!
1&
#6955
0!
#6960
1!
0&
#6965
0!
#6970
1!
1&
#6975
0!
#6980
1!
0&
#6985
0!
#6990
1!
1&
#6995
0!
#7000
1!
0&
#7005
0!
#7010
1!
1&
#7015
0!
#7020
1!
0&
#7025
0!
#7030
1!
1&
#7035
0!
#7040
1!
0&
#7045
0!
#7050
1!
1&
#7055
0!
#7060
1!
0&
#7065
0!
#7070
1!
1&
#7075
0!
#7080
1!
0&
#7085
0!
#7090
1!
1&
#7095
0!
#7100
1!
0&
#7105
0!
#7110
1!
1&
#7115
0!
#7120
1!
0&
#7125
0!
#7130
1!
1&
#7135
0!
#7140
1!
0&
#7145
0!
#7150
1!
1&
#7155
0!
#7160
1!
0&
#7165
0!
#7170
1!
1&
#7175
0!
#7180
1!
0&
#7185
0!
#7190
1!
1&
#7195
0!
#7200
1!
0&
#7205
0!
#7210
1!
1&
#7215
0!
#7220
1!
0&
#7225
0!
#7230
1!
1&
#7235
0!
#7240
1!
0&
#7245
0!
#7250
1!
1&
#7255
0!
#7260
1!
0&
#7265
0!
#7270
1!
1&
#7275
0!
#7280
1!
0&
#7285
0!
#7290
1!
1&
#7295
0!
#7300
1!
0&
#7305
0!
#7310
1!
1&
#7315
0!
#7320
1!
0&
#7325
0!
#7330
1!
1&
#7335
0!
#7340
1!
0&
#7345
0!
#7350
1!
1&
#7355
0!
#7360
1!
0&
#7365
0!
#7370
1!
1&
#7375
0!
#7380
1!
0&
#7385
0!
#7390
1!
1&
#7395
0!
#7400
1!
0&
#7405
0!
#7410
1!
1&
#7415
0!
#7420
1!
0&
#7425
0!
#7430
1!
1&
#7435
0!
#7440
1!
0&
#7445
0!
#7450
1!
1&
#7455
0!
#7460
1!
0&
#7465
0!
#7470
1!
1&
#7475
0!
#7480
1!
0&
#7485
0!
#7490
1!
1&
#7495
0!
#7500
1!
0&
#7505
0!
#7510
1!
1&
#7515
0!
#7520
1!
0&
#7525
0!
#7530
1!
1&
#7535
0!
#7540
1!
0&
#7545
0!
#7550
1!
1&
#7555
0!
#7560
1!
0&
#7565
0!
#7570
1!
1&
#7575
0!
#7580
1!
0&
#7585
0!
#7590
1!
1&
#7595
0!
#7600
1!
0&
#7605
0!
#7610
1!
1&
#7615
0!
#7620
1!
0&
#7625
0!
#7630
1!
1&
#7635
0!
#7640
1!
0&
#7645
0!
#7650
1!
1&
#7655
0!
#7660
1!
0&
#7665
0!
#7670
1!
1&
#7675
0!
#7680
1!
0&
#7685
0!
#7690
1!
1&
#7695
0!
#7700
1!
0&
#7705
0!
#7710
1!
1&
#7715
0!
#7720
1!
0&
#7725
0!
#7730
1!
1&
#7735
0!
#7740
1!
0&
#7745
0!
#7750
1!
1&
#7755
0!
#7760
1!
0&
#7765
0!
#7770
1!
1&
#7775
0!
#7780
1!
0&
#7785
0!
#7790
1!
1&
#7795
0!
#7800
1!
0&
#7805
0!
#7810
1!
1&
#7815
0!
#7820
1!
0&
#7825
0!
#7830
1!
1&
#7835
0!
#7840
1!
0&
#7845
0!
#7850
1!
1&
#7855
0!
#7860
1!
0&
#7865
0!
#7870
1!
1&
#7875
0!
#7880
1!
0&
#7885
0!
#7890
1!
1&
#7895
0!
#7900
1!
0&
#7905
0!
#7910
1!
1&
#7915
0!
#7920
1!
0&
#7925
0!
#7930
1!
1&
#7935
0!
#7940
1!
0&
#7945
0!
#7950
1!
1&
#7955
0!
#7960
1!
0&
#7965
0!
#7970
1!
1&
#7975
0!
#7980
1!
0&
#7985
0!
#7990
1!
1&
#7995
0!
#8000
1!
0&
#8005
0!
#8010
1!
1&
#8015
0!
#8020
1!
0&
#8025
0!
#8030
1!
1&
#8035
0!
#8040
1!
0&
#8045
0!
#8050
1!
1&
#8055
0!
#8060
1!
0&
#8065
0!
#8070
1!
1&
#8075
0!
#8080
1!
0&
#8085
0!
#8090
1!
1&
#8095
0!
#8100
1!
0&
#8105
0!
#8110
1!
1&
#8115
0!
#8120
1!
0&
#8125
0!
#8130
1!
1&
#8135
0!
#8140
1!
0&
#8145
0!
#8150
1!
1&
#8155
0!
#8160
1!
0&
#8165
0!
#8170
1!
1&
#8175
0!
#8180
1!
0&
#8185
0!
#8190
1!
1&
#8195
0!
#8200
1!
0&
#8205
0!
#8210
1!
1&
#8215
0!
#8220
1!
0&
#8225
0!
#8230
1!
1&
#8235
0!
#8240
1!
0&
#8245
0!
#8250
1!
1&
#8255
0!
#8260
1!
0&
#8265
0!
#8270
1!
1&
#8275
0!
#8280
1!
0&
#8285
0!
#8290
1!
1&
#8295
0!
#8300
1!
0&
#8305
0!
#8310
1!
1&
#8315
0!
#8320
1!
0&
#8325
0!
#8330
1!
1&
#8335
0!
#8340
1!
0&
#8345
0!
#8350
1!
1&
#8355
0!
#8360
1!
0&
#8365
0!
#8370
1!
1&
#8375
0!
#8380
1!
0&
#8385
0!
#8390
1!
1&
#8395
0!
#8400
1!
0&
#8405
0!
#8410
1!
1&
#8415
0!
#8420
1!
0&
#8425
0!
#8430
1!
1&
#8435
0!
#8440
1!
0&
#8445
0!
#8450
1!
1&
#8455
0!
#8460
1!
0&
#8465
0!
#8470
1!
1&
#8475
0!
#8480
1!
0&
#8485
0!
#8490
1!
1&
#8495
0!
#8500
1!
0&
#8505
0!
#8510
1!
1&
#8515
0!
#8520
1!
0&
#8525
0!
#8530
1!
1&
#8535
0!
#8540
1!
0&
#8545
0!
#8550
1!
1&
#8555
0!
#8560
1!
0&
#8565
0!
#8570
1!
1&
#8575
0!
#8580
1!
0&
#8585
0!
#8590
1!
1&
#8595
0!
#8600
1!
0&
#8605
0!
#8610
1!
1&
#8615
0!
#8620
1!
0&
#8625
0!
#8630
1!
1&
#8635
0!
#8640
1!
0&
#8645
0!
#8650
1!
1&
#8655
0!
#8660
1!
0&
#8665
0!
#8670
1!
1&
#8675
0!
#8680
1!
0&
#8685
0!
#8690
1!
1&
#8695
0!
#8700
1!
0&
#8705
0!
#8710
1!
1&
#8715
0!
#8720
1!
0&
#8725
0!
#8730
1!
1&
#8735
0!
#8740
1!
0&
#8745
0!
#8750
1!
1&
#8755
0!
#8760
1!
0&
#8765
0!
#8770
1!
1&
#8775
0!
#8780
1!
0&
#8785
0!
#8790
1!
1&
#8795
0!
